00000000 N .debug_abbrev
00000000 N .debug_aranges
00000000 N .debug_frame
00000000 N .debug_info
00000000 N .debug_line
00000000 N .debug_loc
00000000 N .debug_str
00000000 A __IE1
00000000 T _efartext
00000000 a app.c
00000000 a memcmp.c
00000000 a memcpy.c
00000000 a memset.c
00000001 A __IE2
00000002 A __IFG1
00000003 A __IFG2
00000004 A __ME1
00000005 A __ME2
00000018 A __P3IN
00000019 A __P3OUT
0000001a A __P3DIR
0000001b A __P3SEL
0000001c A __P4IN
0000001d A __P4OUT
0000001e A __P4DIR
0000001f A __P4SEL
00000020 A __P1IN
00000021 A __P1OUT
00000022 A __P1DIR
00000023 A __P1IFG
00000024 A __P1IES
00000025 A __P1IE
00000026 A __P1SEL
00000028 A __P2IN
00000029 A __P2OUT
0000002a A __P2DIR
0000002b A __P2IFG
0000002c A __P2IES
0000002d A __P2IE
0000002e A __P2SEL
00000030 A __P5IN
00000031 A __P5OUT
00000032 A __P5DIR
00000033 A __P5SEL
00000034 A __P6IN
00000035 A __P6OUT
00000036 A __P6DIR
00000036 A __data_size
00000037 A __P6SEL
00000050 A __I2CIE
00000051 A __I2CIFG
00000052 A __I2CNDAT
00000055 A __SVSCTL
00000056 A __DCOCTL
00000057 A __BCSCTL1
00000058 A __BCSCTL2
00000059 A __CACTL1
0000005a A __CACTL2
0000005b A __CAPD
00000070 A __U0CTL
00000071 A __I2CTCTL
00000071 A __U0TCTL
00000072 A __I2CDCTL
00000072 A __U0RCTL
00000073 A __I2CPSC
00000073 A __U0MCTL
00000074 A __I2CSCLH
00000074 A __U0BR0
00000075 A __I2CSCLL
00000075 A __U0BR1
00000076 A __I2CDRB
00000076 A __I2CDRW
00000076 A __U0RXBUF
00000077 A __U0TXBUF
00000078 A __U1CTL
00000079 A __U1TCTL
0000007a A __U1RCTL
0000007b A __U1MCTL
0000007c A __U1BR0
0000007d A __U1BR1
0000007e A __U1RXBUF
0000007f A __U1TXBUF
00000080 A __ADC12MCTL0
00000081 A __ADC12MCTL1
00000082 A __ADC12MCTL2
00000083 A __ADC12MCTL3
00000084 A __ADC12MCTL4
00000085 A __ADC12MCTL5
00000086 A __ADC12MCTL6
00000087 A __ADC12MCTL7
00000088 A __ADC12MCTL8
00000089 A __ADC12MCTL9
0000008a A __ADC12MCTL10
0000008b A __ADC12MCTL11
0000008c A __ADC12MCTL12
0000008d A __ADC12MCTL13
0000008e A __ADC12MCTL14
0000008f A __ADC12MCTL15
00000118 A __I2COA
0000011a A __I2CSA
0000011c A __I2CIV
0000011e A __TBIV
00000120 A __WDTCTL
00000122 A __DMACTL0
00000124 A __DMACTL1
00000128 A __FCTL1
0000012a A __FCTL2
0000012c A __FCTL3
0000012e A __TAIV
00000130 A __MPY
00000132 A __MPYS
00000134 A __MAC
00000136 A __MACS
00000138 A __OP2
0000013a A __RESLO
0000013c A __RESHI
0000013e A __SUMEXT
00000140 A __ADC12MEM0
00000142 A __ADC12MEM1
00000144 A __ADC12MEM2
00000146 A __ADC12MEM3
00000148 A __ADC12MEM4
0000014a A __ADC12MEM5
0000014c A __ADC12MEM6
0000014e A __ADC12MEM7
00000150 A __ADC12MEM8
00000152 A __ADC12MEM9
00000154 A __ADC12MEM10
00000156 A __ADC12MEM11
00000158 A __ADC12MEM12
0000015a A __ADC12MEM13
0000015c A __ADC12MEM14
0000015e A __ADC12MEM15
00000160 A __TACTL
00000162 A __TACCTL0
00000164 A __TACCTL1
00000166 A __TACCTL2
00000170 A __TAR
00000172 A __TACCR0
00000174 A __TACCR1
00000176 A __TACCR2
00000180 A __TBCTL
00000182 A __TBCCTL0
00000184 A __TBCCTL1
00000186 A __TBCCTL2
00000188 A __TBCCTL3
0000018a A __TBCCTL4
0000018c A __TBCCTL5
0000018e A __TBCCTL6
00000190 A __TBR
00000192 A __TBCCR0
00000194 A __TBCCR1
00000196 A __TBCCR2
00000198 A __TBCCR3
0000019a A __TBCCR4
0000019c A __TBCCR5
0000019e A __TBCCR6
000001a0 A __ADC12CTL0
000001a2 A __ADC12CTL1
000001a4 A __ADC12IFG
000001a6 A __ADC12IE
000001a8 A __ADC12IV
000001c0 A __DAC12_0CTL
000001c2 A __DAC12_1CTL
000001c8 A __DAC12_0DAT
000001ca A __DAC12_1DAT
000001e0 A __DMA0CTL
000001e2 A __DMA0SA
000001e4 A __DMA0DA
000001e6 A __DMA0SZ
000001e8 A __DMA1CTL
000001ea A __DMA1SA
000001ec A __DMA1DA
000001ee A __DMA1SZ
000001f0 A __DMA2CTL
000001f2 A __DMA2SA
000001f4 A __DMA2DA
000001f6 A __DMA2SZ
00001100 d .data
00001100 D CtpRoutingEngineP__0__currentInterval
00001100 D __data_start
00001104 D CtpRoutingEngineP__0__ECNOff
00001105 D AMQueueImplP__0__current
00001106 D SystemLowPowerListeningP__delayAfterReceive
00001108 D SystemLowPowerListeningP__remoteWakeup
0000110a D FcfsResourceQueueC__0__qTail
0000110b D FcfsResourceQueueC__0__qHead
0000110c D CC2420TinyosNetworkP__resource_owner
0000110d D ActiveMessageAddressC__group
0000110e D ActiveMessageAddressC__addr
00001110 D ArbiterP__1__resId
00001111 D FcfsResourceQueueC__2__qTail
00001112 D FcfsResourceQueueC__2__qHead
00001113 D CC2420SpiP__m_holder
00001114 D TelosSerialP__msp430_uart_telos_config
0000111c D ArbiterP__0__resId
0000111d D FcfsResourceQueueC__1__qTail
0000111e D FcfsResourceQueueC__1__qHead
00001120 D SerialDispatcherP__0__receiveBuffer
00001122 D SerialDispatcherP__0__messagePtrs
00001126 D SerialDispatcherP__0__recvType
00001127 D McuSleepC__dirty
00001128 D msp430_uart_default_config
00001130 D msp430_spi_default_config
00001134 D TOS_NODE_ID
00001136 b .bss
00001136 B DisseminatorP__0__seqno
00001136 B __bss_start
00001136 D _edata
0000113a B CtpRoutingEngineP__0__justEvicted
0000113c B CtpRoutingEngineP__0__sending
0000113e B CtpRoutingEngineP__0__running
00001140 B CtpRoutingEngineP__0__radioOn
00001142 B LinkEstimatorP__prevSentIdx
00001144 B LinkEstimatorP__linkEstSeq
00001146 B QueueC__1__size
00001148 B QueueC__1__tail
0000114a B QueueC__1__head
0000114c B CtpForwardingEngineP__0__forwardingState
0000114e B CC2420ActiveMessageP__pending_message
00001150 B PowerCycleP__sleepInterval
00001152 B UniqueReceiveP__writeIndex
00001154 B CC2420TransmitP__m_receiving
00001156 B CC2420TransmitP__m_state
00001158 B Ds2411P__haveId
0000115a B LocalIeeeEui64P__have_id
0000115c B LocalIeeeEui64P__eui
00001164 B ArbiterP__1__state
00001166 B CC2420SpiP__m_requests
00001168 B CC2420ControlP__m_state
0000116a B CC2420CsmaP__sendErr
0000116c B QueueC__0__size
0000116e B QueueC__0__tail
00001170 B QueueC__0__head
00001172 B ArbiterP__0__state
00001174 B HdlcTranslateC__state
00001176 B SerialDispatcherP__0__receiveTaskSize
00001178 B SerialDispatcherP__0__receiveTaskBuf
0000117a B SerialDispatcherP__0__receiveTaskType
0000117c B SerialDispatcherP__0__receiveTaskPending
0000117e B SerialDispatcherP__0__sendId
00001180 B SerialDispatcherP__0__sendCancelled
00001182 B SerialDispatcherP__0__sendError
00001184 B SerialDispatcherP__0__sendIndex
00001186 B SerialDispatcherP__0__sendLen
00001188 B SerialDispatcherP__0__sendState
0000118a B SerialDispatcherP__0__sendBuffer
0000118c B SerialDispatcherP__0__recvIndex
0000118e B SerialDispatcherP__0__receiveState
00001190 B SerialP__offPending
00001192 B McuSleepC__powerState
00001194 B RootInterfaceC__fwdBusy
00001196 B CC2420ReceiveP__m_p_rx_buf
00001198 B Msp430UartP__0__current_owner
0000119a B TransformAlarmC__1__m_t0
0000119e B TrickleTimerImplP__0__trickles
000011aa B DisseminationEngineImplP__m_buf
00001212 B CC2420TransmitP__totalCcaChecks
00001213 B DisseminatorP__0__m_running
00001214 B LruCtpMsgCacheP__0__count
00001215 B CtpRoutingEngineP__0__state_is_root
00001216 B UniqueReceiveP__receivedMessages
00001226 B CC2420TransmitP__myInitialBackoff
00001228 B DisseminationEngineImplP__m_running
00001229 B DefaultLplP__dutyCycling
0000122a B CC2420ReceiveP__m_bytes_left
0000122b B CtpForwardingEngineP__0__seqno
0000122c B PoolP__2__index
0000122d B SerialDispatcherP__0__receiveTaskWhich
0000122e B CtpRoutingEngineP__0__routingTableActive
0000122f B CC2420TransmitP__abortSpiRelease
00001230 B SchedulerBasicP__m_next
00001252 B CC2420ReceiveP__m_state
00001254 B CC2420ReceiveP__rxFrameLength
00001255 B HdlcTranslateC__m_data
00001256 B LruCtpMsgCacheP__0__cache
0000126e B AlarmToTimerC__0__m_oneshot
0000126f B CC2420TransmitP__m_tx_power
00001270 B CC2420ControlP__addressRecognition
00001271 B CC2420ReceiveP__m_missed_packets
00001272 B TransformAlarmC__1__m_dt
00001276 B PoolP__2__free
00001277 B FcfsResourceQueueC__0__resQ
00001278 B CtpRoutingEngineP__0__routingTable
000012c8 B CtpRoutingEngineP__0__t
000012cc B CC2420TransmitP__sfdHigh
000012cd B DisseminationEngineImplP__m_bufBusy
000012ce B Msp430UartP__0__m_rx_buf
000012d0 B CC2420ReceiveP__receivingPacket
000012d1 B SerialP__rxState
000012d2 B CtpRoutingEngineP__0__beaconMsgBuffer
0000133a B SerialP__rxSeqno
0000133c B CC2420ControlP__m_pan
0000133e B ArbiterP__1__reqResId
0000133e B CtpForwardingEngineP__0__clientEntries
0000133f B CC2420ControlP__autoAckEnabled
00001340 B Msp430UartP__0__m_tx_pos
00001342 B CC2420TransmitP__m_msg
00001344 B RandomMlcgC__seed
00001348 B CC2420TinyosNetworkP__next_owner
00001349 B PoolP__0__index
0000134a B TransformCounterC__1__m_upper
0000134e B Msp430SpiNoDmaP__0__m_tx_buf
00001350 B SerialP__txByteCnt
00001352 B TransformAlarmC__0__m_dt
00001356 B CtpRoutingEngineP__0__beaconMsg
00001358 B FcfsResourceQueueC__1__resQ
00001359 B SerialP__txProto
0000135a B TransformAlarmC__0__m_t0
0000135e B CC2420ControlP__m_short_addr
00001360 B CtpForwardingEngineP__0__loopbackMsgPtr
00001362 B Msp430SpiNoDmaP__0__m_client
00001364 B CC2420SpiP__m_addr
00001366 B CC2420TransmitP__m_prev_time
00001368 B SerialP__txBuf
0000136c B CC2420ActiveMessageP__pending_length
0000136e B PoolP__1__free
0000136f B PoolP__0__free
00001370 B CC2420CsmaP__m_msg
00001372 B LruCtpMsgCacheP__0__first
00001374 B SerialP__ackQ
0000137c B AMQueueImplP__0__queue
00001384 B TransformCounterC__0__m_upper
00001386 B SerialP__rxCRC
00001388 B BitVectorC__0__m_bits
0000138a B LinkEstimatorP__NeighborTable
00001402 B SerialP__txIndex
00001404 B Msp430UartP__0__m_rx_len
00001406 B VirtualizeTimerC__0__m_timers
00001460 B SerialDispatcherP__0__messages
00001530 B Msp430UartP__0__m_rx_pos
00001532 B CtpForwardingEngineP__0__loopbackMsg
0000159a B BitVectorC__1__m_bits
0000159c B Msp430SpiNoDmaP__0__m_rx_buf
0000159e B RootInterfaceC__uartmsg
00001606 B PoolP__1__pool
00001ae6 B SerialP__txState
00001ae7 B DefaultLplP__currentSendLen
00001ae8 B HdlcTranslateC__txTemp
00001ae9 B SerialP__rxByteCnt
00001aea B PoolP__0__queue
00001b54 B CtpRoutingEngineP__0__my_ll_addr
00001b56 B Msp430UartP__0__m_tx_len
00001b58 B CC2420ControlP__m_tx_power
00001b5a B DefaultLplP__currentSendMsg
00001b5c B StateImplP__state
00001b62 B CC2420CsmaP__ccaOn
00001b64 B DisseminatorP__0__valueCache
00001b68 B Ds2411P__ds2411id
00001b70 B CC2420ControlP__hwAutoAckDefault
00001b72 B CC2420ControlP__m_ext_addr
00001b7a B QueueC__1__queue
00001b92 B ArbiterP__0__reqResId
00001b93 B CC2420ControlP__m_channel
00001b94 B PoolP__0__pool
00002174 A __bss_size
0000311c B CC2420SpiP__release
0000311d B UniqueSendP__localSendId
0000311e B QueueC__0__queue
00003188 B CtpRoutingEngineP__0__tHasPassed
0000318a B SerialP__rxBuf
00003190 B CtpRoutingEngineP__0__routeInfo
00003196 B SerialP__rxProto
00003198 B AlarmToTimerC__0__m_dt
0000319c B CC2420ReceiveP__m_timestamp_queue
000031bc B CC2420ReceiveP__m_rx_buf
00003224 B CC2420ReceiveP__m_timestamp_size
00003225 B SchedulerBasicP__m_head
00003226 B CtpRoutingEngineP__0__parentChanges
0000322a B SerialP__txSeqno
0000322c B Msp430SpiNoDmaP__0__m_pos
0000322e B PoolP__2__queue
00003246 B CC2420ReceiveP__m_timestamp_head
00003248 B Msp430SpiNoDmaP__0__m_len
0000324a B Msp430UartP__0__m_byte_time
0000324b B FcfsResourceQueueC__2__resQ
0000324c B AMQueueImplP__0__cancelMask
0000324d B PoolP__1__index
0000324e B CC2420TinyosNetworkP__m_busy_client
00003250 B UniqueReceiveP__recycleSourceElement
00003252 B Msp430UartP__0__m_tx_buf
00003254 B CC2420ControlP__hwAddressRecognition
00003255 B CtpForwardingEngineP__0__clientPtrs
00003256 B PowerCycleP__ccaChecks
00003258 B SerialP__txPending
0000325a B PoolP__2__pool
0000328a B CC2420TransmitP__myCongestionBackoff
0000328c B CC2420ControlP__m_sync_busy
0000328d B SchedulerBasicP__m_tail
0000328e B CC2420TransmitP__m_cca
00003290 B PoolP__1__queue
000032a8 B SerialP__txCRC
000032aa b .noinit
000032aa B __wdt_clear_value
000032ac A _end
00003900 A __stack
00004000 t .text
00004000 W __watchdog_support
00004000 W _reset_vector__
0000400c W __init_stack
00004010 W __do_copy_data
00004010 W __low_level_init
00004028 W __do_clear_bss
0000403e T main
0000466e W __stop_progExec__
0000466e W _endless_loop__
00004674 t __br_unexpected_
00004674 T __ctors_end
00004674 T __ctors_start
00004674 T __dtors_end
00004674 T __dtors_start
00004674 W __isr_0
00004674 W __isr_10
00004674 W __isr_11
00004674 W __isr_14
00004674 W __isr_7
00004678 t __nesc_ntoh_uint32
000046b2 t CtpForwardingEngineP__0__clearState
000046b8 t CC2420SpiP__SpiByte__write
000046d2 t SerialP__rxInit
000046f0 t OneWireMasterP__BusyWait__wait
0000471a t OneWireMasterP__Pin__makeInput
00004722 t OneWireMasterP__Pin__makeOutput
0000472a t Msp430TimerP__1__Timer__get
0000473c t GpioCaptureC__0__enableCapture
00004772 t MotePlatformC__TOSH_FLASH_M25P_DP_bit
00004796 t CC2420PacketP__getNetwork
000047dc t LinkEstimatorP__findIdx
00004800 t CtpRoutingEngineP__0__LinkEstimator__getLinkQuality
00004834 t LinkEstimatorP__updateDETX
00004888 t LruCtpMsgCacheP__0__lookup
000048e8 t CC2420ReceiveP__reset_state
00004900 t HplMsp430Usart1P__Usart__disableSpi
0000491e t HplMsp430Usart1P__Usart__disableUart
00004936 t LocalIeeeEui64P__LocalIeeeEui64__getId
00004abe t crcByte
00004b02 t LruCtpMsgCacheP__0__Cache__insert
00004bb4 t HplMsp430Usart0P__Usart__resetUsart
00004bc6 t SchedulerBasicP__popTask.part.142
00004be4 t Msp430TimerP__0__Event__fired
00004c20 t ArbiterP__1__ResourceConfigure__unconfigure.part.158
00004c4a t CtpForwardingEngineP__0__SendQueue__dequeue
00004c76 t CtpForwardingEngineP__0__MessagePool__put.part.165
00004c9c t CtpForwardingEngineP__0__QEntryPool__put.part.166
00004cc2 t CtpForwardingEngineP__0__CtpInfo__getEtx
00004cfa t CtpForwardingEngineP__0__packetComplete.isra.171
00004d28 T __nesc_atomic_start
00004d3a T __nesc_atomic_end
00004d42 t Msp430SpiNoDmaP__0__continueOp
00004dbe t CC2420SpiP__WorkingState__isIdle
00004dd8 t CC2420SpiP__Strobe__strobe
00004e08 t PowerCycleP__SplitControlState__isState
00004e28 t PowerCycleP__isDutyCycling
00004e46 t CC2420CsmaP__SplitControlState__isState
00004e66 t Msp430GpioC__4__GeneralIO__clr
00004e76 t SchedulerBasicP__TaskBasic__postTask
00004ec2 t CC2420SpiP__attemptRelease
00004f4c t ArbiterP__1__ResourceDefaultOwner__release
00004f80 t SerialP__ReceiveBytePacket__endPacket
00004ffe t SerialP__testOff
00005020 t CC2420SpiP__SpiPacket__send.part.173
0000503a t CC2420ReceiveP__RXFIFO__continueRead
00005066 t CC2420ReceiveP__RXFIFO__beginRead
000050d0 t CC2420ReceiveP__receive
000050e0 t CC2420TransmitP__Send__sendDone.isra.189
000050fc t CC2420TransmitP__signalDone
00005116 t StateImplP__State__requestState
0000514a t StateImplP__State__toIdle
00005160 t CC2420SpiP__Resource__request
00005202 t Msp430GpioC__4__GeneralIO__set
00005210 t CC2420SpiP__Resource__release
000052c6 t CC2420TransmitP__releaseSpiResource
000052d2 t RandomMlcgC__Random__rand32
0000533c t RandomMlcgC__Random__rand16
00005344 t CC2420TransmitP__RadioBackoff__requestInitialBackoff
00005384 t TrickleTimerImplP__0__generateTime
00005454 t TransformAlarmC__0__Counter__get
0000549e t TransformAlarmC__0__set_alarm
00005582 t TransformAlarmC__0__Alarm__start
000055c6 t CC2420TransmitP__congestionBackoff
00005622 t CC2420TransmitP__attemptSend
000056ba t CC2420SpiP__Reg__write
000056fe t CC2420SpiP__Ram__write
00005776 t CC2420ControlP__writeId
000057c8 t Msp430UartP__0__UsartResource__isOwner.part.202
000057ee t HdlcTranslateC__UartStream__send.constprop.230
00005822 t SerialP__SerialFrameComm__putData
0000584a t SerialP__SerialFrameComm__putDelimiter
00005864 t SerialP__MaybeScheduleTx
0000588a t HdlcTranslateC__UartStream__sendDone.isra.204
000059be t SerialP__rx_state_machine
00005bfe t CC2420ActiveMessageP__AMPacket__address
00005c12 t DefaultLplP__SplitControlState__getState
00005c26 t DefaultLplP__SendState__getState
00005c3a t TransformAlarmC__1__Counter__get
00005cb6 t VirtualizeTimerC__0__Timer__startOneShot
00005cfc t DefaultLplP__initializeSend
00005d76 t CtpRoutingEngineP__0__chooseAdvertiseTime
00005dc6 t CtpRoutingEngineP__0__resetInterval
00005dd6 t DefaultLplP__startOffTimer
00005de6 t CtpForwardingEngineP__0__startRetxmitTimer
00005e0c t CtpForwardingEngineP__0__SubSend__sendDone
00005f12 t AMQueueImplP__0__Send__sendDone
00005f4e t TransformAlarmC__1__set_alarm
00006044 t CC2420TinyosNetworkP__ActiveSend__send
000060f0 t CC2420ActiveMessageP__AMSend__send
000061a8 t AMQueueImplP__0__Send__send
0000621a t DisseminationEngineImplP__sendObject
000062ce t AMQueueImplP__0__tryToSend
00006350 t CC2420ActiveMessageP__AMSend__sendDone.isra.214
00006388 t TrickleTimerImplP__0__Changed__set
000063bc t TrickleTimerImplP__0__adjustTimer
00006454 t DisseminationEngineImplP__TrickleTimer__reset
000064a0 t StateImplP__State__forceState
000064bc t PowerCycleP__finishSplitControlRequests
000065d0 t CC2420ControlP__RSTN__clr
000065e0 t CC2420ControlP__RSTN__set
000065f0 t CC2420CsmaP__shutdown
00006670 t CC2420CsmaP__SplitControl__stop
000066c4 t CC2420ControlP__writeFsctrl
000066f0 t CC2420ControlP__writeMdmctrl0
00006742 t CC2420TransmitP__loadTXFIFO
000067d4 t VirtualizeTimerC__0__fireTimers
000069b8 t CC2420CsmaP__SplitControl__start
00006a1a t Msp430UartP__0__ResourceConfigure__configure.constprop.229
00006b02 t HplMsp430Usart0P__Usart__setModeSpi.constprop.231
00006b88 t CC2420SpiP__Resource__immediateRequest
00006bfe t CC2420ReceiveP__beginReceive
00006c24 t CC2420ReceiveP__waitForNextPacket
00006c72 t CC2420ReceiveP__flush
00006c9a t Msp430SpiNoDmaP__0__signalDone
00006f9e t CC2420TransmitP__acquireSpiResource
00006fbc t Msp430TimerP__1__Event__fired
0000730a t SchedulerBasicP__TaskBasic__runTask
00008d0a t RealMainP__Scheduler__runNextTask
00008d28 T __isr_6
00008d28 T sig_TIMERA0_VECTOR
00008d46 T __isr_5
00008d46 T sig_TIMERA1_VECTOR
00008d6c T __isr_13
00008d6c T sig_TIMERB0_VECTOR
00008d8a T __isr_12
00008d8a T sig_TIMERB1_VECTOR
00008db0 T __isr_3
00008db0 T sig_UART1RX_VECTOR
00008e36 T __isr_2
00008e36 T sig_UART1TX_VECTOR
00008e92 T __isr_4
00008e92 T sig_PORT1_VECTOR
00008f84 T __isr_1
00008f84 T sig_PORT2_VECTOR
00009032 T __isr_9
00009032 T sig_UART0RX_VECTOR
0000908e T __isr_8
0000908e T sig_UART0TX_VECTOR
000090b0 t LinkEstimatorP__initNeighborIdx
000090e0 t LinkEstimatorP__findWorstNeighborIdx
00009128 t CtpRoutingEngineP__0__routingTableFind
0000914e t LinkEstimatorP__Packet__payloadLength
00009168 t LinkEstimatorP__updateNeighborEntryIdx
0000936c t RootInterfaceC__CollectionReceive__receive.isra.185
000093e4 t LinkEstimatorP__LinkEstimator__evicted
00009454 T __umulsidi3
0000948a T __muldi3
000094c0 T __xabi_muldi3
00009500 T __ext_udivmod16
00009500 T __udivhi3
0000951a T __umodhi3
00009522 T __divhi3
00009522 T __ext_divmod16
00009554 T __modhi3
0000955c T __ext_udivmod32
0000955c T __udivsi3
00009592 T __umodsi3
0000959c T memcmp
000095bc T memcpy
000096b6 T memset
00009720 W _unexpected_
00009722 r .rodata
000097ac R McuSleepC__msp430PowerBits
000097b8 r CSWTCH.657
000097bc A __data_load_start
000097bc A _etext
0000ffe0 t .vectors
0000ffe0 T __ivtbl_16
00010000 T _vectors_end
